{
  "project_info": {
    "project_number": "1058053250748",
    "firebase_url": "https://aetherian-tap-ball.firebaseio.com",
    "project_id": "aetherian-tap-ball",
    "storage_bucket": "aetherian-tap-ball.appspot.com"
  },
  "client": [
    {
      "client_info": {
        "mobilesdk_app_id": "1:1058053250748:android:42e77996b0bd159c",
        "android_client_info": {
          "package_name": "com.murcrid.aetheriantapball"
        }
      },
      "oauth_client": [
        {
          "client_id": "1058053250748-6ldb7eok7jsabd2497kq39f00bk45f0r.apps.googleusercontent.com",
          "client_type": 3
        }
      ],
      "api_key": [
        {
          "current_key": "AIzaSyA0Ew7E8_YsrHhbqNQgasysykkMXm68Eoc"
        }
      ],
      "services": {
        "analytics_service": {
          "status": 1
        },
        "appinvite_service": {
          "status": 1,
          "other_platform_oauth_client": []
        },
        "ads_service": {
          "status": 2
        }
      }
    }
  ],
  "configuration_version": "1"
}