%YAML 1.1
%TAG !u! tag:unity3d.com,2011:
--- !u!114 &11400000
MonoBehaviour:
  m_ObjectHideFlags: 0
  m_PrefabParentObject: {fileID: 0}
  m_PrefabInternal: {fileID: 0}
  m_GameObject: {fileID: 0}
  m_Enabled: 1
  m_EditorHideFlags: 0
  m_Script: {fileID: 11500000, guid: cb65e6899034ab542aa8ab46743f5886, type: 3}
  m_Name: Level_2
  m_EditorClassIdentifier: 
  normalPlankData:
    originalCount: 10
    usedCount: 10
    type: 0
  normalPlankWithSmallHoleData:
    originalCount: 0
    usedCount: 0
    type: 1
  normalPlankWithBigHoleData:
    originalCount: 0
    usedCount: 0
    type: 2
  smallPlankData:
    originalCount: 0
    usedCount: 0
    type: 3
  smallPlankWithSmallHoleData:
    originalCount: 0
    usedCount: 0
    type: 4
  smallPlankWithBigHoleData:
    originalCount: 0
    usedCount: 0
    type: 5
  movingPlankData:
    originalCount: 0
    usedCount: 0
    type: 6
  movingPlankWithSmallHoleData:
    originalCount: 0
    usedCount: 0
    type: 7
  movingPlankWithBigHoleData:
    originalCount: 0
    usedCount: 0
    type: 8
  smallmovingPlankData:
    originalCount: 0
    usedCount: 0
    type: 9
  smallmovingPlankWithSmallHoleData:
    originalCount: 0
    usedCount: 0
    type: 10
  smallmovingPlankWithBigHoleData:
    originalCount: 0
    usedCount: 0
    type: 11
  name: Level Two
  isInfinite: 0
  ballStartSpeed: 2.25
  difficultyModifier: 1
  finalPlankUsed: 1
  nullPlankUsed: 1
